[gd_scene load_steps=5 format=3 uid="uid://c2e2vrj3y7n73"]

[ext_resource type="Script" path="res://raccoon.gd" id="1_y2coo"]
[ext_resource type="Texture2D" uid="uid://cafegr017w3ia" path="res://objects/ic0.png" id="2_qa6qe"]
[ext_resource type="Texture2D" uid="uid://brpkxhsqpu7vy" path="res://objects/ic1.png" id="3_6kp2j"]

[sub_resource type="SpriteFrames" id="SpriteFrames_anuxp"]
animations = [{
"frames": [{
"duration": 1.0,
"texture": ExtResource("2_qa6qe")
}, {
"duration": 1.0,
"texture": ExtResource("3_6kp2j")
}],
"loop": true,
"name": &"default",
"speed": 5.0
}]

[node name="Node2D" type="Node2D"]
script = ExtResource("1_y2coo")

[node name="AnimatedSprite2D" type="AnimatedSprite2D" parent="."]
scale = Vector2(0.3, 0.3)
sprite_frames = SubResource("SpriteFrames_anuxp")

[connection signal="animation_looped" from="AnimatedSprite2D" to="." method="_on_animated_sprite_2d_animation_looped"]
