[gd_scene load_steps=3 format=3 uid="uid://de2tce7p2gnoa"]

[ext_resource type="PackedScene" uid="uid://tmby8dclpati" path="res://main_game.tscn" id="1_1ou3l"]
[ext_resource type="Script" path="res://over_under.gd" id="1_r1ktt"]

[node name="Node2D" type="Node2D"]
script = ExtResource("1_r1ktt")

[node name="level" parent="." instance=ExtResource("1_1ou3l")]
