[gd_resource type="Theme" load_steps=8 format=3 uid="uid://chuo2784q1qos"]

[ext_resource type="FontFile" uid="uid://dm22xkwlesxh3" path="res://Crackman.otf" id="1_ut65l"]
[ext_resource type="FontFile" uid="uid://cwwrir6tjw854" path="res://iosevka-etoile-regular.ttf" id="1_v0sdm"]
[ext_resource type="Texture2D" uid="uid://vx0dulencwy0" path="res://objects/sound_on.png" id="2_vovw5"]
[ext_resource type="Texture2D" uid="uid://c0ch27wfioj02" path="res://objects/sound_off.png" id="3_2fctr"]

[sub_resource type="StyleBoxFlat" id="StyleBoxFlat_3lyfm"]
bg_color = Color(0.0313726, 0.627451, 0.752941, 1)

[sub_resource type="StyleBoxEmpty" id="StyleBoxEmpty_dagqn"]

[sub_resource type="StyleBoxEmpty" id="StyleBoxEmpty_g1ivj"]

[resource]
Button/colors/font_color = Color(0.984314, 1, 0.807843, 1)
Button/constants/h_separation = 0
Button/font_sizes/font_size = 50
Button/fonts/font = ExtResource("1_ut65l")
Button/styles/normal = SubResource("StyleBoxFlat_3lyfm")
CheckButton/icons/checked = ExtResource("3_2fctr")
CheckButton/icons/unchecked = ExtResource("2_vovw5")
HSeparator/constants/separation = 15
HSeparator/styles/separator = SubResource("StyleBoxEmpty_dagqn")
Label/colors/font_color = Color(0.435294, 0.156863, 0.545098, 1)
Label/font_sizes/font_size = 32
Label/fonts/font = ExtResource("1_v0sdm")
Label/styles/normal = SubResource("StyleBoxEmpty_g1ivj")
